…
# 将其转换为长表格
long_countries <- countries %>%
gather(key="country", value="population", -year, -sex)
## # A tibble: 24 x 4
## year sex country population
## <dbl> <chr> <chr> <dbl>
## 1 1995 Female Australia 9063508
## 2 1995 Male Australia 8990481
## 3 2000 Female Australia 9619222
## 4 2000 Male Australia 9537815
## 5 2015 Female Australia 11950850
## 6 2015 Male Australia 11826927
## 7 1995 Female Germany 41930010
## 8 1995 Male Germany 39730955
## 9 2000 Female Germany 42071655
## 10 2000 Male Germany 40115959
## # ... with 14 more rows
…
